^E:\VS\LIST\LIST\DEBUG\LIST.OBJ
/OUT:"E:\VS\LIST\DEBUG\LIST.EXE" /INCREMENTAL /NOLOGO KERNEL32.LIB USER32.LIB GDI32.LIB WINSPOOL.LIB COMDLG32.LIB ADVAPI32.LIB SHELL32.LIB OLE32.LIB OLEAUT32.LIB UUID.LIB ODBC32.LIB ODBCCP32.LIB /MANIFEST /MANIFESTUAC:"level='asInvoker' uiAccess='false'" /manifest:embed /DEBUG /PDB:"E:\VS\LIST\DEBUG\LIST.PDB" /SUBSYSTEM:CONSOLE /TLBID:1 /DYNAMICBASE /NXCOMPAT /IMPLIB:"E:\VS\LIST\DEBUG\LIST.LIB" /MACHINE:X86 DEBUG\LIST.OBJ
^E:\VS\2 КУРС 1 СЕМЕСТЕР\LIST\LIST\DEBUG\LIST.OBJ
/OUT:"E:\VS\2 КУРС 1 СЕМЕСТЕР\LIST\DEBUG\LIST.EXE" /INCREMENTAL /NOLOGO KERNEL32.LIB USER32.LIB GDI32.LIB WINSPOOL.LIB COMDLG32.LIB ADVAPI32.LIB SHELL32.LIB OLE32.LIB OLEAUT32.LIB UUID.LIB ODBC32.LIB ODBCCP32.LIB /MANIFEST /MANIFESTUAC:"level='asInvoker' uiAccess='false'" /manifest:embed /DEBUG /PDB:"E:\VS\2 КУРС 1 СЕМЕСТЕР\LIST\DEBUG\LIST.PDB" /SUBSYSTEM:CONSOLE /TLBID:1 /DYNAMICBASE /NXCOMPAT /IMPLIB:"E:\VS\2 КУРС 1 СЕМЕСТЕР\LIST\DEBUG\LIST.LIB" /MACHINE:X86 DEBUG\LIST.OBJ
