^E:\VS\TREE\TREE\DEBUG\MAIN.OBJ
/OUT:"E:\VS\TREE\DEBUG\TREE.EXE" /INCREMENTAL /NOLOGO KERNEL32.LIB USER32.LIB GDI32.LIB WINSPOOL.LIB COMDLG32.LIB ADVAPI32.LIB SHELL32.LIB OLE32.LIB OLEAUT32.LIB UUID.LIB ODBC32.LIB ODBCCP32.LIB /MANIFEST /MANIFESTUAC:"level='asInvoker' uiAccess='false'" /manifest:embed /DEBUG /PDB:"E:\VS\TREE\DEBUG\TREE.PDB" /SUBSYSTEM:CONSOLE /TLBID:1 /DYNAMICBASE /NXCOMPAT /IMPLIB:"E:\VS\TREE\DEBUG\TREE.LIB" /MACHINE:X86 DEBUG\MAIN.OBJ
^E:\VS\2 КУРС 1 СЕМЕСТЕР\TREE\TREE\DEBUG\MAIN.OBJ
/OUT:"E:\VS\2 КУРС 1 СЕМЕСТЕР\TREE\DEBUG\TREE.EXE" /INCREMENTAL /NOLOGO KERNEL32.LIB USER32.LIB GDI32.LIB WINSPOOL.LIB COMDLG32.LIB ADVAPI32.LIB SHELL32.LIB OLE32.LIB OLEAUT32.LIB UUID.LIB ODBC32.LIB ODBCCP32.LIB /MANIFEST /MANIFESTUAC:"level='asInvoker' uiAccess='false'" /manifest:embed /DEBUG /PDB:"E:\VS\2 КУРС 1 СЕМЕСТЕР\TREE\DEBUG\TREE.PDB" /SUBSYSTEM:CONSOLE /TLBID:1 /DYNAMICBASE /NXCOMPAT /IMPLIB:"E:\VS\2 КУРС 1 СЕМЕСТЕР\TREE\DEBUG\TREE.LIB" /MACHINE:X86 DEBUG\MAIN.OBJ
